<svg xmlns="http://www.w3.org/2000/svg" width="311.895" height="83.943" viewBox="0 0 311.895 83.943">
  <g id="Group_20" data-name="Group 20" transform="translate(-989.2 -467)">
    <g id="Group_19" data-name="Group 19" transform="translate(321.641 -587.332)">
      <path id="Path_1" data-name="Path 1" d="M935.8,1075.453c-1.768.14-2.591-.411-3.6-2.05-8.4-13.628-20.167-20.327-35.025-18.876a38.554,38.554,0,0,0-33.262,26.015c-.3.588-7.058,1.111-12.732,4.585-7.693,4.71-9.021,14.6-9.021,14.6s4.38-8.267,11.393-11.806,20.087.679,20.087.679a25.051,25.051,0,0,1-1.98-8.488c6.345-17.751,25.447-25.981,42.012-18.064a34.236,34.236,0,0,1,16.368,16.706c.888,1.854,1.678,2.26,3.478,1.781.146-.038.291-.079.439-.106,10.209-1.9,17.333-.952,22.783,2.938s10.309,10.569,10.309,10.569C961.78,1077.533,944.474,1074.763,935.8,1075.453Z" fill="#002e53"/>
      <path id="Path_2" data-name="Path 2" d="M876.82,1116.3a1.672,1.672,0,0,0-2.083.226c-.713.675-1.37,1.418-2.132,2.03a16.863,16.863,0,0,1-27.253-10.157,16.061,16.061,0,0,1-.076-5.353c.026-.135.052-.259.079-.4a16.862,16.862,0,0,1,27.252-10.157c.762.613,1.42,1.355,2.132,2.03a1.674,1.674,0,0,0,2.084.226,1.613,1.613,0,0,0,.628-1.928,3.727,3.727,0,0,0-.732-1.013,20.163,20.163,0,0,0-9.379-5.692,26.926,26.926,0,0,0-4.5-.694,20.168,20.168,0,0,0-20.253,14.56h0c-.047.162-.083.329-.125.494-.063.246-.14.486-.193.736l0,.031a20.386,20.386,0,0,0-.006,8.6,20.163,20.163,0,0,0,20.575,15.79,26.819,26.819,0,0,0,4.495-.694,20.166,20.166,0,0,0,9.378-5.692,3.73,3.73,0,0,0,.733-1.013A1.612,1.612,0,0,0,876.82,1116.3Z" fill="#9bb326" stroke="#8abb2a" stroke-miterlimit="10" stroke-width="1"/>
      <text id="loud" transform="translate(875.454 1125.075)" fill="#9bb326" font-size="56.39" font-family="Raleway-Regular, Raleway" letter-spacing="-0.081em"><tspan x="0" y="0">loud</tspan></text>
      <g id="Group_3" data-name="Group 3">
        <g id="Group_1" data-name="Group 1">
          <path id="Path_3" data-name="Path 3" d="M695.09,1094.454a8.776,8.776,0,0,0-1.636-1.325,16.424,16.424,0,0,0-2.51-1.325,18.325,18.325,0,0,0-3.157-1.015,15.725,15.725,0,0,0-3.525-.395q-4,0-5.893,1.466a4.852,4.852,0,0,0-1.889,4.06,4.4,4.4,0,0,0,.592,2.4,5.068,5.068,0,0,0,1.833,1.635,14.274,14.274,0,0,0,3.1,1.241q1.86.537,4.342,1.156a50.026,50.026,0,0,1,5.5,1.635,15.666,15.666,0,0,1,4.145,2.2,8.953,8.953,0,0,1,2.622,3.186,10.331,10.331,0,0,1,.931,4.6,11.15,11.15,0,0,1-1.156,5.244,9.858,9.858,0,0,1-3.159,3.581,13.885,13.885,0,0,1-4.652,2.03,23.933,23.933,0,0,1-5.7.649,28.389,28.389,0,0,1-8.826-1.382,25.266,25.266,0,0,1-7.7-4.031l2.876-5.414a13.385,13.385,0,0,0,2.116,1.635,19.59,19.59,0,0,0,3.213,1.663,27.974,27.974,0,0,0,3.976,1.3,18.209,18.209,0,0,0,4.455.536,10.68,10.68,0,0,0,5.752-1.3,4.26,4.26,0,0,0,2.03-3.835,4.119,4.119,0,0,0-.761-2.539,6.563,6.563,0,0,0-2.171-1.776,18.99,18.99,0,0,0-3.44-1.381q-2.03-.619-4.624-1.3a47.741,47.741,0,0,1-5.217-1.664,13.024,13.024,0,0,1-3.693-2.114,8.286,8.286,0,0,1-2.227-2.9,9.638,9.638,0,0,1-.762-4.032,11.632,11.632,0,0,1,1.128-5.217,11.144,11.144,0,0,1,3.073-3.834,13.445,13.445,0,0,1,4.6-2.341,20.109,20.109,0,0,1,5.752-.789,21.113,21.113,0,0,1,7.5,1.3,24.873,24.873,0,0,1,6.034,3.214Z" fill="#002e53"/>
        </g>
        <g id="Group_2" data-name="Group 2">
          <path id="Path_4" data-name="Path 4" d="M695.09,1094.454a8.776,8.776,0,0,0-1.636-1.325,16.424,16.424,0,0,0-2.51-1.325,18.325,18.325,0,0,0-3.157-1.015,15.725,15.725,0,0,0-3.525-.395q-4,0-5.893,1.466a4.852,4.852,0,0,0-1.889,4.06,4.4,4.4,0,0,0,.592,2.4,5.068,5.068,0,0,0,1.833,1.635,14.274,14.274,0,0,0,3.1,1.241q1.86.537,4.342,1.156a50.026,50.026,0,0,1,5.5,1.635,15.666,15.666,0,0,1,4.145,2.2,8.953,8.953,0,0,1,2.622,3.186,10.331,10.331,0,0,1,.931,4.6,11.15,11.15,0,0,1-1.156,5.244,9.858,9.858,0,0,1-3.159,3.581,13.885,13.885,0,0,1-4.652,2.03,23.933,23.933,0,0,1-5.7.649,28.389,28.389,0,0,1-8.826-1.382,25.266,25.266,0,0,1-7.7-4.031l2.876-5.414a13.385,13.385,0,0,0,2.116,1.635,19.59,19.59,0,0,0,3.213,1.663,27.974,27.974,0,0,0,3.976,1.3,18.209,18.209,0,0,0,4.455.536,10.68,10.68,0,0,0,5.752-1.3,4.26,4.26,0,0,0,2.03-3.835,4.119,4.119,0,0,0-.761-2.539,6.563,6.563,0,0,0-2.171-1.776,18.99,18.99,0,0,0-3.44-1.381q-2.03-.619-4.624-1.3a47.741,47.741,0,0,1-5.217-1.664,13.024,13.024,0,0,1-3.693-2.114,8.286,8.286,0,0,1-2.227-2.9,9.638,9.638,0,0,1-.762-4.032,11.632,11.632,0,0,1,1.128-5.217,11.144,11.144,0,0,1,3.073-3.834,13.445,13.445,0,0,1,4.6-2.341,20.109,20.109,0,0,1,5.752-.789,21.113,21.113,0,0,1,7.5,1.3,24.873,24.873,0,0,1,6.034,3.214Z" fill="none" stroke="#002f53" stroke-miterlimit="10" stroke-width="1.25"/>
        </g>
      </g>
      <g id="Group_6" data-name="Group 6">
        <g id="Group_4" data-name="Group 4">
          <path id="Path_5" data-name="Path 5" d="M711.2,1125.639a10.994,10.994,0,0,1-3.975-.7,9.6,9.6,0,0,1-3.159-1.947,9.051,9.051,0,0,1-2.086-2.931,8.838,8.838,0,0,1-.761-3.666,7.9,7.9,0,0,1,.9-3.779,8.84,8.84,0,0,1,2.565-2.932,12.489,12.489,0,0,1,3.949-1.917,17.721,17.721,0,0,1,5.047-.677,23.252,23.252,0,0,1,4.116.366,20.869,20.869,0,0,1,3.666.987v-2.03a6.833,6.833,0,0,0-1.862-5.1,7.32,7.32,0,0,0-5.357-1.833,12.937,12.937,0,0,0-4.652.874,23.6,23.6,0,0,0-4.708,2.509l-1.918-3.947a20.915,20.915,0,0,1,11.843-3.835q6.09,0,9.473,3.1t3.384,8.91v10.658q0,1.976,1.636,2.03v5.3q-.9.17-1.551.226t-1.27.056a3.986,3.986,0,0,1-2.791-.9,3.859,3.859,0,0,1-1.213-2.312l-.168-1.861a13.165,13.165,0,0,1-4.878,3.976A14.328,14.328,0,0,1,711.2,1125.639Zm1.692-4.568a11.155,11.155,0,0,0,4.257-.817,7.341,7.341,0,0,0,3.13-2.284,2.86,2.86,0,0,0,1.185-2.143v-3.891a18.656,18.656,0,0,0-3.356-.958,18.459,18.459,0,0,0-3.467-.339,9.485,9.485,0,0,0-5.443,1.438,4.407,4.407,0,0,0-2.114,3.806,4.8,4.8,0,0,0,1.635,3.694A5.947,5.947,0,0,0,712.894,1121.071Z" fill="#002e53"/>
        </g>
        <g id="Group_5" data-name="Group 5">
          <path id="Path_6" data-name="Path 6" d="M711.2,1125.639a10.994,10.994,0,0,1-3.975-.7,9.6,9.6,0,0,1-3.159-1.947,9.051,9.051,0,0,1-2.086-2.931,8.838,8.838,0,0,1-.761-3.666,7.9,7.9,0,0,1,.9-3.779,8.84,8.84,0,0,1,2.565-2.932,12.489,12.489,0,0,1,3.949-1.917,17.721,17.721,0,0,1,5.047-.677,23.252,23.252,0,0,1,4.116.366,20.869,20.869,0,0,1,3.666.987v-2.03a6.833,6.833,0,0,0-1.862-5.1,7.32,7.32,0,0,0-5.357-1.833,12.937,12.937,0,0,0-4.652.874,23.6,23.6,0,0,0-4.708,2.509l-1.918-3.947a20.915,20.915,0,0,1,11.843-3.835q6.09,0,9.473,3.1t3.384,8.91v10.658q0,1.976,1.636,2.03v5.3q-.9.17-1.551.226t-1.27.056a3.986,3.986,0,0,1-2.791-.9,3.859,3.859,0,0,1-1.213-2.312l-.168-1.861a13.165,13.165,0,0,1-4.878,3.976A14.328,14.328,0,0,1,711.2,1125.639Zm1.692-4.568a11.155,11.155,0,0,0,4.257-.817,7.341,7.341,0,0,0,3.13-2.284,2.86,2.86,0,0,0,1.185-2.143v-3.891a18.656,18.656,0,0,0-3.356-.958,18.459,18.459,0,0,0-3.467-.339,9.485,9.485,0,0,0-5.443,1.438,4.407,4.407,0,0,0-2.114,3.806,4.8,4.8,0,0,0,1.635,3.694A5.947,5.947,0,0,0,712.894,1121.071Z" fill="none" stroke="#002f53" stroke-miterlimit="10" stroke-width="1.25"/>
        </g>
      </g>
      <g id="Group_9" data-name="Group 9">
        <g id="Group_7" data-name="Group 7">
          <path id="Path_7" data-name="Path 7" d="M744.135,1125.357a12.292,12.292,0,0,1-5.47-1.212,13.066,13.066,0,0,1-4.258-3.3,15.53,15.53,0,0,1-2.762-4.793,16.476,16.476,0,0,1-.988-5.7,17.275,17.275,0,0,1,1.016-5.949,15.081,15.081,0,0,1,2.819-4.849,13.462,13.462,0,0,1,4.314-3.271,12.6,12.6,0,0,1,5.554-1.213,11.421,11.421,0,0,1,6.232,1.693,14.323,14.323,0,0,1,4.427,4.4v-5.583h5.47v28.647a13.081,13.081,0,0,1-1.184,5.7,12.027,12.027,0,0,1-3.3,4.2,14.885,14.885,0,0,1-4.991,2.622,20.608,20.608,0,0,1-6.2.9,17.763,17.763,0,0,1-8.149-1.663,15.415,15.415,0,0,1-5.441-4.652l3.5-3.271a10.907,10.907,0,0,0,4.37,3.609,13.451,13.451,0,0,0,5.724,1.241,12.8,12.8,0,0,0,3.637-.508,8.432,8.432,0,0,0,3.017-1.579,7.634,7.634,0,0,0,2.058-2.707,9.149,9.149,0,0,0,.762-3.891v-4.511a10.8,10.8,0,0,1-4.343,4.173A12.215,12.215,0,0,1,744.135,1125.357Zm2.03-5.019a7.743,7.743,0,0,0,2.707-.479,9.546,9.546,0,0,0,2.4-1.3,9.32,9.32,0,0,0,1.889-1.861,6.738,6.738,0,0,0,1.128-2.227v-7.726a10.445,10.445,0,0,0-3.525-4.568,10.087,10.087,0,0,0-2.452-1.326,7.685,7.685,0,0,0-6.232.4,8.768,8.768,0,0,0-2.735,2.313,10.985,10.985,0,0,0-1.748,3.242,11.365,11.365,0,0,0-.62,3.722,10.222,10.222,0,0,0,.7,3.806,9.706,9.706,0,0,0,1.946,3.1,9.552,9.552,0,0,0,2.9,2.115A8.377,8.377,0,0,0,746.165,1120.338Z" fill="#002e53"/>
        </g>
        <g id="Group_8" data-name="Group 8">
          <path id="Path_8" data-name="Path 8" d="M744.135,1125.357a12.292,12.292,0,0,1-5.47-1.212,13.066,13.066,0,0,1-4.258-3.3,15.53,15.53,0,0,1-2.762-4.793,16.476,16.476,0,0,1-.988-5.7,17.275,17.275,0,0,1,1.016-5.949,15.081,15.081,0,0,1,2.819-4.849,13.462,13.462,0,0,1,4.314-3.271,12.6,12.6,0,0,1,5.554-1.213,11.421,11.421,0,0,1,6.232,1.693,14.323,14.323,0,0,1,4.427,4.4v-5.583h5.47v28.647a13.081,13.081,0,0,1-1.184,5.7,12.027,12.027,0,0,1-3.3,4.2,14.885,14.885,0,0,1-4.991,2.622,20.608,20.608,0,0,1-6.2.9,17.763,17.763,0,0,1-8.149-1.663,15.415,15.415,0,0,1-5.441-4.652l3.5-3.271a10.907,10.907,0,0,0,4.37,3.609,13.451,13.451,0,0,0,5.724,1.241,12.8,12.8,0,0,0,3.637-.508,8.432,8.432,0,0,0,3.017-1.579,7.634,7.634,0,0,0,2.058-2.707,9.149,9.149,0,0,0,.762-3.891v-4.511a10.8,10.8,0,0,1-4.343,4.173A12.215,12.215,0,0,1,744.135,1125.357Zm2.03-5.019a7.743,7.743,0,0,0,2.707-.479,9.546,9.546,0,0,0,2.4-1.3,9.32,9.32,0,0,0,1.889-1.861,6.738,6.738,0,0,0,1.128-2.227v-7.726a10.445,10.445,0,0,0-3.525-4.568,10.087,10.087,0,0,0-2.452-1.326,7.685,7.685,0,0,0-6.232.4,8.768,8.768,0,0,0-2.735,2.313,10.985,10.985,0,0,0-1.748,3.242,11.365,11.365,0,0,0-.62,3.722,10.222,10.222,0,0,0,.7,3.806,9.706,9.706,0,0,0,1.946,3.1,9.552,9.552,0,0,0,2.9,2.115A8.377,8.377,0,0,0,746.165,1120.338Z" fill="none" stroke="#002f53" stroke-miterlimit="10" stroke-width="1.25"/>
        </g>
      </g>
      <g id="Group_12" data-name="Group 12">
        <g id="Group_10" data-name="Group 10">
          <path id="Path_9" data-name="Path 9" d="M778.591,1125.639a15.706,15.706,0,0,1-6.26-1.212,14.543,14.543,0,0,1-4.821-3.3,14.867,14.867,0,0,1-3.1-4.85,15.71,15.71,0,0,1-1.1-5.865,15.927,15.927,0,0,1,1.1-5.892,15.1,15.1,0,0,1,3.1-4.907,14.349,14.349,0,0,1,4.821-3.327,15.833,15.833,0,0,1,6.315-1.213,15.183,15.183,0,0,1,6.232,1.241,14.932,14.932,0,0,1,4.766,3.3,14.142,14.142,0,0,1,3.016,4.793,15.941,15.941,0,0,1,1.044,5.724q0,.677-.057,1.269t-.113.987H769.906a10.077,10.077,0,0,0,.931,3.552,9.315,9.315,0,0,0,1.974,2.736,8.66,8.66,0,0,0,6.005,2.4,9.866,9.866,0,0,0,2.454-.31,8.628,8.628,0,0,0,2.227-.9,7.933,7.933,0,0,0,1.8-1.438,6.758,6.758,0,0,0,1.241-1.861l5.3,1.523a12.294,12.294,0,0,1-5.047,5.441A15.632,15.632,0,0,1,778.591,1125.639Zm8.966-17.537a9.914,9.914,0,0,0-.931-3.441,8.858,8.858,0,0,0-1.945-2.679,8.69,8.69,0,0,0-2.763-1.719,9.035,9.035,0,0,0-3.327-.62,8.826,8.826,0,0,0-6.034,2.339,8.461,8.461,0,0,0-1.917,2.679,10.3,10.3,0,0,0-.9,3.441Z" fill="#002e53"/>
        </g>
        <g id="Group_11" data-name="Group 11">
          <path id="Path_10" data-name="Path 10" d="M778.591,1125.639a15.706,15.706,0,0,1-6.26-1.212,14.543,14.543,0,0,1-4.821-3.3,14.867,14.867,0,0,1-3.1-4.85,15.71,15.71,0,0,1-1.1-5.865,15.927,15.927,0,0,1,1.1-5.892,15.1,15.1,0,0,1,3.1-4.907,14.349,14.349,0,0,1,4.821-3.327,15.833,15.833,0,0,1,6.315-1.213,15.183,15.183,0,0,1,6.232,1.241,14.932,14.932,0,0,1,4.766,3.3,14.142,14.142,0,0,1,3.016,4.793,15.941,15.941,0,0,1,1.044,5.724q0,.677-.057,1.269t-.113.987H769.906a10.077,10.077,0,0,0,.931,3.552,9.315,9.315,0,0,0,1.974,2.736,8.66,8.66,0,0,0,6.005,2.4,9.866,9.866,0,0,0,2.454-.31,8.628,8.628,0,0,0,2.227-.9,7.933,7.933,0,0,0,1.8-1.438,6.758,6.758,0,0,0,1.241-1.861l5.3,1.523a12.294,12.294,0,0,1-5.047,5.441A15.632,15.632,0,0,1,778.591,1125.639Zm8.966-17.537a9.914,9.914,0,0,0-.931-3.441,8.858,8.858,0,0,0-1.945-2.679,8.69,8.69,0,0,0-2.763-1.719,9.035,9.035,0,0,0-3.327-.62,8.826,8.826,0,0,0-6.034,2.339,8.461,8.461,0,0,0-1.917,2.679,10.3,10.3,0,0,0-.9,3.441Z" fill="none" stroke="#002f53" stroke-miterlimit="10" stroke-width="1.25"/>
        </g>
      </g>
      <g id="Group_15" data-name="Group 15">
        <g id="Group_13" data-name="Group 13">
          <path id="Path_11" data-name="Path 11" d="M822.52,1125.075h-6.2v-16.523q0-4.172-1.325-6.062a4.478,4.478,0,0,0-3.92-1.889,7.687,7.687,0,0,0-2.706.507,9.481,9.481,0,0,0-2.538,1.439,11.163,11.163,0,0,0-2.114,2.2,10.053,10.053,0,0,0-1.439,2.791v17.538h-6.2v-29.493h5.64v5.921a11.976,11.976,0,0,1,4.905-4.708,14.821,14.821,0,0,1,7.106-1.721,8.75,8.75,0,0,1,4.342.959,7.187,7.187,0,0,1,2.679,2.622,11.521,11.521,0,0,1,1.382,3.835,25.789,25.789,0,0,1,.4,4.6Z" fill="#002e53"/>
        </g>
        <g id="Group_14" data-name="Group 14">
          <path id="Path_12" data-name="Path 12" d="M822.52,1125.075h-6.2v-16.523q0-4.172-1.325-6.062a4.478,4.478,0,0,0-3.92-1.889,7.687,7.687,0,0,0-2.706.507,9.481,9.481,0,0,0-2.538,1.439,11.163,11.163,0,0,0-2.114,2.2,10.053,10.053,0,0,0-1.439,2.791v17.538h-6.2v-29.493h5.64v5.921a11.976,11.976,0,0,1,4.905-4.708,14.821,14.821,0,0,1,7.106-1.721,8.75,8.75,0,0,1,4.342.959,7.187,7.187,0,0,1,2.679,2.622,11.521,11.521,0,0,1,1.382,3.835,25.789,25.789,0,0,1,.4,4.6Z" fill="none" stroke="#002f53" stroke-miterlimit="10" stroke-width="1.25"/>
        </g>
      </g>
      <g id="Group_18" data-name="Group 18">
        <g id="Group_16" data-name="Group 16">
          <path id="Path_13" data-name="Path 13" d="M842.158,1123.553a30.921,30.921,0,0,1-3.27,1.268,13.827,13.827,0,0,1-4.455.7,9.438,9.438,0,0,1-2.763-.394,6.727,6.727,0,0,1-2.284-1.185,5.364,5.364,0,0,1-1.551-2.058,7.538,7.538,0,0,1-.564-3.074v-18.44H823.38v-4.793h3.891v-9.7h6.2v9.7H839.9v4.793h-6.428v16.467a3.057,3.057,0,0,0,.986,2.284,3.341,3.341,0,0,0,2.171.705,6.9,6.9,0,0,0,2.481-.451q1.185-.452,1.748-.734Z" fill="#002e53"/>
        </g>
        <g id="Group_17" data-name="Group 17">
          <path id="Path_14" data-name="Path 14" d="M842.158,1123.553a30.921,30.921,0,0,1-3.27,1.268,13.827,13.827,0,0,1-4.455.7,9.438,9.438,0,0,1-2.763-.394,6.727,6.727,0,0,1-2.284-1.185,5.364,5.364,0,0,1-1.551-2.058,7.538,7.538,0,0,1-.564-3.074v-18.44H823.38v-4.793h3.891v-9.7h6.2v9.7H839.9v4.793h-6.428v16.467a3.057,3.057,0,0,0,.986,2.284,3.341,3.341,0,0,0,2.171.705,6.9,6.9,0,0,0,2.481-.451q1.185-.452,1.748-.734Z" fill="none" stroke="#002f53" stroke-miterlimit="10" stroke-width="1.25"/>
        </g>
      </g>
    </g>
  </g>
</svg>
